345611
54790
149233
9963
9966
5334
6775
7850
4680
5243
2524
4891
3575
1268
26
553103
6583
3119
114548
3717
22891
6621
9103
2212
5879
3641
23048
8453
80824
5739
51564
1893
10249
923
56667
10293
9034
328
6774
7172
7157
3856
3176
51611
3223
9516
3579
23040
85407
441108
91975
9734
2768
54973
146198
124626
219771
57178
388228
629
7297
8856
11273
150962
84162
54546
4851
159296
109
64167
4585
64127
4650
6821
64581
3553
2950
5802
7148
1388
4088
132612
120892
56301
9267
201266
51214
3383
4292
3566
5468
3458
958
5771
23314
6584
972
59067
23266
3558
2191
3912
9863
3587
864
56603
55054
4210
6441
3605
9231
51750
55876
3554
1493
5788
25953
5473
26191
163486
7515
128611
246778
22861
1611
7376
50861
10301
23168
8863
2494
11261
55801
2162
3586
940
2050
3557
4485
2166
54106
11315
7494
3606
79847
2841
337867
2525
57644
2859
10866
144811
4790
6934
643749
90865
9180
1394
119587
1738
1605
23252
55600
3663
100129347
4261
7096
84441
6097
10636
7099
4314
5743
7124
4855
8986
57222
7097
10333
7100
150280
149954
84619
1789
55741
64332
5141
1001
84456
120400
54665
23418
80762
54901
639
3117
4311
101929467
286343
3559
91074
9811
10666
2648
100996583
5579
55765
1429
112744
3106
54360
7132
113
79722
27034
10071
155185
8477
150223
29949
4046
101927586
6696
8807
54535
56244
3123
781
646982
54210
327
51460
8927
1951
